x,y
0.254545454545454,0.000107491856678
0.509090909090909,0.00021986970684
0.736363636363636,0.000327361563518
1,0.000444625407166
1.26363636363636,0.000537459283388
1.5,0.000635179153094
1.76363636363636,0.000737785016287
2.00909090909091,0.000835504885993
2.24545454545455,0.000918566775244
2.5,0.001001628664495
2.75454545454545,0.001094462540717
3.00909090909091,0.001162866449511
3.25454545454545,0.001245928338762
3.5,0.001299674267101
3.75454545454545,0.001358306188925
4.01818181818182,0.001412052117264
4.24545454545455,0.001470684039088
4.5,0.001519543973941
4.74545454545455,0.001563517915309
5.00909090909091,0.001607491856678
5.26363636363636,0.00163680781759
5.5,0.001680781758958
5.74545454545455,0.001705211726384
5.74545454545455,0.001705211726384
5.74545454545455,0.001705211726384
6.00909090909091,0.001729641693811
6.23636363636364,0.001758957654723
6.5,0.001788273615635
6.74545454545455,0.001793159609121
6.99090909090909,0.001812703583062
7.25454545454545,0.001827361563518
7.50909090909091,0.001842019543974
7.75454545454545,0.001851791530945
8,0.001861563517915
8.26363636363636,0.001871335504886
8.49090909090909,0.001871335504886
8.76363636363636,0.001866449511401
9,0.001885993485342
